 [1;34m   OS [0mRed Hat Enterprise Linux Server release 7.9 (Maipo)
 [1;34m   C++ [0mgcc (GCC) 8.3.1 20190311 (Red Hat 8.3.1-3)
 [1;34m   Python [0m3.6.8
 [1;34m   Julia [0m1.6.2
 [1;34m   R [0m version 3.6.0 (2019-04-26) -- "Planting of a Tree"
 [1;34m   font [0mJuliaMono 
 [1;34m   colors [0mbase16 material
 [0m

[30 [0m[31 [0m[32 [0m[33 [0m[34 [0m[35 [0m[36 [0m[37 [0m
[1;30 [0m[1;31 [0m[1;32 [0m[1;33 [0m[1;34 [0m[1;35 [0m[1;36 [0m[1;37 [0m

 [1;34m   OS [0mRed Hat Enterprise Linux Server release 7.9 (Maipo)
 [1;34m   C++ [0mgcc (GCC) 8.3.1 20190311 (Red Hat 8.3.1-3)
 [1;34m   Python [0m3.6.8
 [1;34m   Julia [0m1.6.2
 [1;34m   R [0m version 3.6.0 (2019-04-26) -- "Planting of a Tree"
 [1;34m   font [0mJuliaMono 
 [1;34m   colors [0mbase16 material
 [0m

[30 [0m[31 [0m[32 [0m[33 [0m[34 [0m[35 [0m[36 [0m[37 [0m
[1;30 [0m[1;31 [0m[1;32 [0m[1;33 [0m[1;34 [0m[1;35 [0m[1;36 [0m[1;37 [0m

 [1;34m   OS [0mRed Hat Enterprise Linux Server release 7.9 (Maipo)
 [1;34m   C++ [0mgcc (GCC) 8.3.1 20190311 (Red Hat 8.3.1-3)
 [1;34m   Python [0m3.6.8
 [1;34m   Julia [0m1.6.2
 [1;34m   R [0m version 3.6.0 (2019-04-26) -- "Planting of a Tree"
 [1;34m   font [0mJuliaMono 
 [1;34m   colors [0mbase16 material
 [0m

[30 [0m[31 [0m[32 [0m[33 [0m[34 [0m[35 [0m[36 [0m[37 [0m
[1;30 [0m[1;31 [0m[1;32 [0m[1;33 [0m[1;34 [0m[1;35 [0m[1;36 [0m[1;37 [0m

 [1;34m   OS [0mRed Hat Enterprise Linux Server release 7.9 (Maipo)
 [1;34m   C++ [0mgcc (GCC) 8.3.1 20190311 (Red Hat 8.3.1-3)
 [1;34m   Python [0m3.6.8
 [1;34m   Julia [0m1.6.2
 [1;34m   R [0m version 3.6.0 (2019-04-26) -- "Planting of a Tree"
 [1;34m   font [0mJuliaMono 
 [1;34m   colors [0mbase16 material
 [0m

[30 [0m[31 [0m[32 [0m[33 [0m[34 [0m[35 [0m[36 [0m[37 [0m
[1;30 [0m[1;31 [0m[1;32 [0m[1;33 [0m[1;34 [0m[1;35 [0m[1;36 [0m[1;37 [0m

Starting job sim1.jl
Wed Oct 20 16:27:10 EDT 2021
Job id: 31581100.torque01.util.production.int.aci.ics.psu.edu
Job arrayid: 
Loading modules to provide Julia 1.6.2
About to change into /storage/work/s/suv87/julia/rdpg/code/pbs
Wed Oct 20 16:27:10 EDT 2021
About to start Julia
  Activating environment at `/storage/work/s/suv87/julia/rdpg/Project.toml`
0.0%┣                                                ┫ 0/7 [00:00<00:00, -0s/it]
[1A14.3%┣██████▏                                    ┫ 1/7 [00:38<Inf:Inf, InfGs/it]
[1A28.6%┣█████████████▍                                 ┫ 2/7 [00:40<03:20, 40s/it]
[1A42.9%┣████████████████████▏                          ┫ 3/7 [00:56<01:51, 28s/it]
[1A57.1%┣██████████████████████████▉                    ┫ 4/7 [02:11<02:11, 44s/it]
[1A71.4%┣█████████████████████████████████▋             ┫ 5/7 [06:30<03:15, 98s/it]
[1A85.7%┣███████████████████████████████████████▍      ┫ 6/7 [25:10<05:02, 302s/it]
[1A100.0%┣██████████████████████████████████████████┫ 7/7 [01:04:48<00:00, 648s/it]
[1A100.0%┣██████████████████████████████████████████┫ 7/7 [01:04:48<00:00, 648s/it]
n=50, k=1, ϵ = 0.6756094903785759, method=eps, result=1.1020196124609198
n=50, k=1, ϵ = 0.6756094903785759, method=noeps, result=0.12174894281159854
n=50, k=2, ϵ = 0.6756094903785759, method=eps, result=0.98138962230638
n=50, k=2, ϵ = 0.6756094903785759, method=noeps, result=0.017844956755875364
n=50, k=3, ϵ = 0.6756094903785759, method=eps, result=1.1923953069140105
n=50, k=3, ϵ = 0.6756094903785759, method=noeps, result=0.03111224334563545
n=50, k=4, ϵ = 0.6756094903785759, method=eps, result=0.9331872922399818
n=50, k=4, ϵ = 0.6756094903785759, method=noeps, result=0.016850989297937866
n=50, k=5, ϵ = 0.6756094903785759, method=eps, result=1.0721827772023098
n=50, k=5, ϵ = 0.6756094903785759, method=noeps, result=0.08007611872464963
n=50, k=6, ϵ = 0.6756094903785759, method=eps, result=1.0991532984925658
n=50, k=6, ϵ = 0.6756094903785759, method=noeps, result=0.0160022070490472
n=50, k=7, ϵ = 0.6756094903785759, method=eps, result=1.3131700458721136
n=50, k=7, ϵ = 0.6756094903785759, method=noeps, result=0.047231551568661156
n=50, k=8, ϵ = 0.6756094903785759, method=eps, result=0.9985542013856259
n=50, k=8, ϵ = 0.6756094903785759, method=noeps, result=0.028280763620684476
n=50, k=9, ϵ = 0.6756094903785759, method=eps, result=1.1884547418282891
n=50, k=9, ϵ = 0.6756094903785759, method=noeps, result=0.02315415678789287
n=50, k=10, ϵ = 0.6756094903785759, method=eps, result=1.033901767014259
n=50, k=10, ϵ = 0.6756094903785759, method=noeps, result=0.07474613996734218
n=50, k=11, ϵ = 0.6756094903785759, method=eps, result=1.0027160806477233
n=50, k=11, ϵ = 0.6756094903785759, method=noeps, result=0.029648214180829024
n=50, k=12, ϵ = 0.6756094903785759, method=eps, result=1.15437901037246
n=50, k=12, ϵ = 0.6756094903785759, method=noeps, result=0.015871387774504073
n=50, k=13, ϵ = 0.6756094903785759, method=eps, result=1.1126813559855142
n=50, k=13, ϵ = 0.6756094903785759, method=noeps, result=0.014946956407412601
n=50, k=14, ϵ = 0.6756094903785759, method=eps, result=1.1196320538541433
n=50, k=14, ϵ = 0.6756094903785759, method=noeps, result=0.032472237232482826
n=50, k=15, ϵ = 0.6756094903785759, method=eps, result=1.1578821125887286
n=50, k=15, ϵ = 0.6756094903785759, method=noeps, result=0.02787813439587833
n=50, k=16, ϵ = 0.6756094903785759, method=eps, result=1.198945191828114
n=50, k=16, ϵ = 0.6756094903785759, method=noeps, result=0.012812061925414724
n=50, k=17, ϵ = 0.6756094903785759, method=eps, result=1.5253642014691793
n=50, k=17, ϵ = 0.6756094903785759, method=noeps, result=0.024614010984654988
n=50, k=18, ϵ = 0.6756094903785759, method=eps, result=1.1559135851077054
n=50, k=18, ϵ = 0.6756094903785759, method=noeps, result=0.04124360598185933
n=50, k=19, ϵ = 0.6756094903785759, method=eps, result=1.0205898697859372
n=50, k=19, ϵ = 0.6756094903785759, method=noeps, result=0.07541963693152347
n=50, k=20, ϵ = 0.6756094903785759, method=eps, result=1.32680931743813
n=50, k=20, ϵ = 0.6756094903785759, method=noeps, result=0.03471546709579518
n=100, k=1, ϵ = 0.6720006726321074, method=eps, result=0.7452867510854845
n=100, k=1, ϵ = 0.6720006726321074, method=noeps, result=0.04115826807192828
n=100, k=2, ϵ = 0.6720006726321074, method=eps, result=0.6484124191493674
n=100, k=2, ϵ = 0.6720006726321074, method=noeps, result=0.023898834290756676
n=100, k=3, ϵ = 0.6720006726321074, method=eps, result=1.1398300434574489
n=100, k=3, ϵ = 0.6720006726321074, method=noeps, result=0.041458803199805744
n=100, k=4, ϵ = 0.6720006726321074, method=eps, result=0.8028923108553528
n=100, k=4, ϵ = 0.6720006726321074, method=noeps, result=0.028134058661944496
n=100, k=5, ϵ = 0.6720006726321074, method=eps, result=0.9320864471427179
n=100, k=5, ϵ = 0.6720006726321074, method=noeps, result=0.056666651672379866
n=100, k=6, ϵ = 0.6720006726321074, method=eps, result=0.7217102056728846
n=100, k=6, ϵ = 0.6720006726321074, method=noeps, result=0.027803801201940086
n=100, k=7, ϵ = 0.6720006726321074, method=eps, result=0.8582781173080405
n=100, k=7, ϵ = 0.6720006726321074, method=noeps, result=0.0342566773178727
n=100, k=8, ϵ = 0.6720006726321074, method=eps, result=0.8494396543413225
n=100, k=8, ϵ = 0.6720006726321074, method=noeps, result=0.046595372608696284
n=100, k=9, ϵ = 0.6720006726321074, method=eps, result=0.875232889600351
n=100, k=9, ϵ = 0.6720006726321074, method=noeps, result=0.03594217841017845
n=100, k=10, ϵ = 0.6720006726321074, method=eps, result=0.8953792752736905
n=100, k=10, ϵ = 0.6720006726321074, method=noeps, result=0.03347635002836229
n=100, k=11, ϵ = 0.6720006726321074, method=eps, result=0.8556027879878022
n=100, k=11, ϵ = 0.6720006726321074, method=noeps, result=0.029895225813283133
n=100, k=12, ϵ = 0.6720006726321074, method=eps, result=0.9049648664946195
n=100, k=12, ϵ = 0.6720006726321074, method=noeps, result=0.04766096973497021
n=100, k=13, ϵ = 0.6720006726321074, method=eps, result=0.8334048158358297
n=100, k=13, ϵ = 0.6720006726321074, method=noeps, result=0.05741593339944
n=100, k=14, ϵ = 0.6720006726321074, method=eps, result=0.7014195268370014
n=100, k=14, ϵ = 0.6720006726321074, method=noeps, result=0.053292848417456795
n=100, k=15, ϵ = 0.6720006726321074, method=eps, result=0.817137193639542
n=100, k=15, ϵ = 0.6720006726321074, method=noeps, result=0.04638815416410158
n=100, k=16, ϵ = 0.6720006726321074, method=eps, result=0.8944909096417484
n=100, k=16, ϵ = 0.6720006726321074, method=noeps, result=0.022064203996186985
n=100, k=17, ϵ = 0.6720006726321074, method=eps, result=0.9075324684183208
n=100, k=17, ϵ = 0.6720006726321074, method=noeps, result=0.039657190029989645
n=100, k=18, ϵ = 0.6720006726321074, method=eps, result=0.9457728956566717
n=100, k=18, ϵ = 0.6720006726321074, method=noeps, result=0.06465187133270928
n=100, k=19, ϵ = 0.6720006726321074, method=eps, result=0.766766788392805
n=100, k=19, ϵ = 0.6720006726321074, method=noeps, result=0.028187781493579117
n=100, k=20, ϵ = 0.6720006726321074, method=eps, result=0.6755538145680892
n=100, k=20, ϵ = 0.6720006726321074, method=noeps, result=0.07485309815506096
n=200, k=1, ϵ = 0.6682502611081668, method=eps, result=0.5524439755325676
n=200, k=1, ϵ = 0.6682502611081668, method=noeps, result=0.04745038090495976
n=200, k=2, ϵ = 0.6682502611081668, method=eps, result=0.6015162134170258
n=200, k=2, ϵ = 0.6682502611081668, method=noeps, result=0.03785904745911288
n=200, k=3, ϵ = 0.6682502611081668, method=eps, result=0.5949369640983198
n=200, k=3, ϵ = 0.6682502611081668, method=noeps, result=0.05175482481081666
n=200, k=4, ϵ = 0.6682502611081668, method=eps, result=0.6783636428526183
n=200, k=4, ϵ = 0.6682502611081668, method=noeps, result=0.055461802208866644
n=200, k=5, ϵ = 0.6682502611081668, method=eps, result=0.704416438831701
n=200, k=5, ϵ = 0.6682502611081668, method=noeps, result=0.04622138537561873
n=200, k=6, ϵ = 0.6682502611081668, method=eps, result=0.5626855913013191
n=200, k=6, ϵ = 0.6682502611081668, method=noeps, result=0.06329042448662038
n=200, k=7, ϵ = 0.6682502611081668, method=eps, result=0.5422483531543161
n=200, k=7, ϵ = 0.6682502611081668, method=noeps, result=0.041499700562115424
n=200, k=8, ϵ = 0.6682502611081668, method=eps, result=0.6986702043180061
n=200, k=8, ϵ = 0.6682502611081668, method=noeps, result=0.05515549871232835
n=200, k=9, ϵ = 0.6682502611081668, method=eps, result=0.5787503736591012
n=200, k=9, ϵ = 0.6682502611081668, method=noeps, result=0.0342021053140093
n=200, k=10, ϵ = 0.6682502611081668, method=eps, result=0.6348297355060089
n=200, k=10, ϵ = 0.6682502611081668, method=noeps, result=0.02936263750136909
n=200, k=11, ϵ = 0.6682502611081668, method=eps, result=0.7550338287685228
n=200, k=11, ϵ = 0.6682502611081668, method=noeps, result=0.05292540589151353
n=200, k=12, ϵ = 0.6682502611081668, method=eps, result=0.7429417879161739
n=200, k=12, ϵ = 0.6682502611081668, method=noeps, result=0.04226350218730436
n=200, k=13, ϵ = 0.6682502611081668, method=eps, result=0.7530456749340633
n=200, k=13, ϵ = 0.6682502611081668, method=noeps, result=0.03946432638937999
n=200, k=14, ϵ = 0.6682502611081668, method=eps, result=0.6507646024598037
n=200, k=14, ϵ = 0.6682502611081668, method=noeps, result=0.04367001319069271
n=200, k=15, ϵ = 0.6682502611081668, method=eps, result=0.6992730600148371
n=200, k=15, ϵ = 0.6682502611081668, method=noeps, result=0.045231458846333915
n=200, k=16, ϵ = 0.6682502611081668, method=eps, result=0.6082287349535719
n=200, k=16, ϵ = 0.6682502611081668, method=noeps, result=0.041525356716787726
n=200, k=17, ϵ = 0.6682502611081668, method=eps, result=0.546148809195593
n=200, k=17, ϵ = 0.6682502611081668, method=noeps, result=0.0332322930986322
n=200, k=18, ϵ = 0.6682502611081668, method=eps, result=0.6807414900726838
n=200, k=18, ϵ = 0.6682502611081668, method=noeps, result=0.034866818200150695
n=200, k=19, ϵ = 0.6682502611081668, method=eps, result=0.5785969030763951
n=200, k=19, ϵ = 0.6682502611081668, method=noeps, result=0.04490474565603544
n=200, k=20, ϵ = 0.6682502611081668, method=eps, result=0.6711511929959888
n=200, k=20, ϵ = 0.6682502611081668, method=noeps, result=0.041604388387747965
n=400, k=1, ϵ = 0.6643981914358631, method=eps, result=0.39859558346368584
n=400, k=1, ϵ = 0.6643981914358631, method=noeps, result=0.0541237175497556
n=400, k=2, ϵ = 0.6643981914358631, method=eps, result=0.40343160737201644
n=400, k=2, ϵ = 0.6643981914358631, method=noeps, result=0.05389569523634913
n=400, k=3, ϵ = 0.6643981914358631, method=eps, result=0.437966954599173
n=400, k=3, ϵ = 0.6643981914358631, method=noeps, result=0.05105139278384597
n=400, k=4, ϵ = 0.6643981914358631, method=eps, result=0.39538227007052695
n=400, k=4, ϵ = 0.6643981914358631, method=noeps, result=0.0576413950958638
n=400, k=5, ϵ = 0.6643981914358631, method=eps, result=0.34478758826601974
n=400, k=5, ϵ = 0.6643981914358631, method=noeps, result=0.05765804116677589
n=400, k=6, ϵ = 0.6643981914358631, method=eps, result=0.5372934088116448
n=400, k=6, ϵ = 0.6643981914358631, method=noeps, result=0.047296117562415974
n=400, k=7, ϵ = 0.6643981914358631, method=eps, result=0.4169920358143058
n=400, k=7, ϵ = 0.6643981914358631, method=noeps, result=0.05322857135599794
n=400, k=8, ϵ = 0.6643981914358631, method=eps, result=0.4527712922859706
n=400, k=8, ϵ = 0.6643981914358631, method=noeps, result=0.05417723313582792
n=400, k=9, ϵ = 0.6643981914358631, method=eps, result=0.44212739554272723
n=400, k=9, ϵ = 0.6643981914358631, method=noeps, result=0.05590986074067236
n=400, k=10, ϵ = 0.6643981914358631, method=eps, result=0.42379240035516264
n=400, k=10, ϵ = 0.6643981914358631, method=noeps, result=0.05174371241568762
n=400, k=11, ϵ = 0.6643981914358631, method=eps, result=0.38429286457824824
n=400, k=11, ϵ = 0.6643981914358631, method=noeps, result=0.051363163170023055
n=400, k=12, ϵ = 0.6643981914358631, method=eps, result=0.5053044465603872
n=400, k=12, ϵ = 0.6643981914358631, method=noeps, result=0.04144370289886841
n=400, k=13, ϵ = 0.6643981914358631, method=eps, result=0.30680604501112846
n=400, k=13, ϵ = 0.6643981914358631, method=noeps, result=0.054755440179701714
n=400, k=14, ϵ = 0.6643981914358631, method=eps, result=0.42130497222010477
n=400, k=14, ϵ = 0.6643981914358631, method=noeps, result=0.05672900738937829
n=400, k=15, ϵ = 0.6643981914358631, method=eps, result=0.46612021653887714
n=400, k=15, ϵ = 0.6643981914358631, method=noeps, result=0.057074401678059036
n=400, k=16, ϵ = 0.6643981914358631, method=eps, result=0.37727933682121073
n=400, k=16, ϵ = 0.6643981914358631, method=noeps, result=0.05573531956855238
n=400, k=17, ϵ = 0.6643981914358631, method=eps, result=0.39736761548532384
n=400, k=17, ϵ = 0.6643981914358631, method=noeps, result=0.04585679802733734
n=400, k=18, ϵ = 0.6643981914358631, method=eps, result=0.3618504863141026
n=400, k=18, ϵ = 0.6643981914358631, method=noeps, result=0.04835910103864145
n=400, k=19, ϵ = 0.6643981914358631, method=eps, result=0.45393324331990215
n=400, k=19, ϵ = 0.6643981914358631, method=noeps, result=0.05286229971055173
n=400, k=20, ϵ = 0.6643981914358631, method=eps, result=0.5040565222000053
n=400, k=20, ϵ = 0.6643981914358631, method=noeps, result=0.057522230128219345
n=600, k=1, ϵ = 0.6621088452640282, method=eps, result=0.31797577139480293
n=600, k=1, ϵ = 0.6621088452640282, method=noeps, result=0.045757849525003155
n=600, k=2, ϵ = 0.6621088452640282, method=eps, result=0.3762706145408442
n=600, k=2, ϵ = 0.6621088452640282, method=noeps, result=0.05391800888342965
n=600, k=3, ϵ = 0.6621088452640282, method=eps, result=0.36221799467650756
n=600, k=3, ϵ = 0.6621088452640282, method=noeps, result=0.053379773567874614
n=600, k=4, ϵ = 0.6621088452640282, method=eps, result=0.34153240225292986
n=600, k=4, ϵ = 0.6621088452640282, method=noeps, result=0.04887408907736693
n=600, k=5, ϵ = 0.6621088452640282, method=eps, result=0.3268105162962078
n=600, k=5, ϵ = 0.6621088452640282, method=noeps, result=0.038839661647502924
n=600, k=6, ϵ = 0.6621088452640282, method=eps, result=0.3138151294397828
n=600, k=6, ϵ = 0.6621088452640282, method=noeps, result=0.051235124585352294
n=600, k=7, ϵ = 0.6621088452640282, method=eps, result=0.32284126503054034
n=600, k=7, ϵ = 0.6621088452640282, method=noeps, result=0.0555295401390908
n=600, k=8, ϵ = 0.6621088452640282, method=eps, result=0.35763388480293
n=600, k=8, ϵ = 0.6621088452640282, method=noeps, result=0.04839510427153243
n=600, k=9, ϵ = 0.6621088452640282, method=eps, result=0.30381604441880183
n=600, k=9, ϵ = 0.6621088452640282, method=noeps, result=0.0525460706449846
n=600, k=10, ϵ = 0.6621088452640282, method=eps, result=0.3408030259823702
n=600, k=10, ϵ = 0.6621088452640282, method=noeps, result=0.04756461831618831
n=600, k=11, ϵ = 0.6621088452640282, method=eps, result=0.35099639989006687
n=600, k=11, ϵ = 0.6621088452640282, method=noeps, result=0.046370288399556064
n=600, k=12, ϵ = 0.6621088452640282, method=eps, result=0.3190949662697141
n=600, k=12, ϵ = 0.6621088452640282, method=noeps, result=0.05216542554607605
n=600, k=13, ϵ = 0.6621088452640282, method=eps, result=0.33286918139930993
n=600, k=13, ϵ = 0.6621088452640282, method=noeps, result=0.04986365838500492
n=600, k=14, ϵ = 0.6621088452640282, method=eps, result=0.2982245003989199
n=600, k=14, ϵ = 0.6621088452640282, method=noeps, result=0.049085081094980054
n=600, k=15, ϵ = 0.6621088452640282, method=eps, result=0.33889049796069326
n=600, k=15, ϵ = 0.6621088452640282, method=noeps, result=0.04924508575959195
n=600, k=16, ϵ = 0.6621088452640282, method=eps, result=0.33385070645984405
n=600, k=16, ϵ = 0.6621088452640282, method=noeps, result=0.04572300197762871
n=600, k=17, ϵ = 0.6621088452640282, method=eps, result=0.40081719658308823
n=600, k=17, ϵ = 0.6621088452640282, method=noeps, result=0.05114925002412219
n=600, k=18, ϵ = 0.6621088452640282, method=eps, result=0.34434161283000536
n=600, k=18, ϵ = 0.6621088452640282, method=noeps, result=0.038751740718939144
n=600, k=19, ϵ = 0.6621088452640282, method=eps, result=0.35228791090036554
n=600, k=19, ϵ = 0.6621088452640282, method=noeps, result=0.055505012928076254
n=600, k=20, ϵ = 0.6621088452640282, method=eps, result=0.3472736596709859
n=600, k=20, ϵ = 0.6621088452640282, method=noeps, result=0.05716379964043358
n=800, k=1, ϵ = 0.6604713196672862, method=eps, result=0.3104379407192019
n=800, k=1, ϵ = 0.6604713196672862, method=noeps, result=0.049923018539159245
n=800, k=2, ϵ = 0.6604713196672862, method=eps, result=0.30893856437551664
n=800, k=2, ϵ = 0.6604713196672862, method=noeps, result=0.0498597312784608
n=800, k=3, ϵ = 0.6604713196672862, method=eps, result=0.3188098321257391
n=800, k=3, ϵ = 0.6604713196672862, method=noeps, result=0.046895146793405215
n=800, k=4, ϵ = 0.6604713196672862, method=eps, result=0.3298300474863926
n=800, k=4, ϵ = 0.6604713196672862, method=noeps, result=0.04838210507314298
n=800, k=5, ϵ = 0.6604713196672862, method=eps, result=0.301930232676704
n=800, k=5, ϵ = 0.6604713196672862, method=noeps, result=0.051616067950884074
n=800, k=6, ϵ = 0.6604713196672862, method=eps, result=0.2963899668370537
n=800, k=6, ϵ = 0.6604713196672862, method=noeps, result=0.05170411851993394
n=800, k=7, ϵ = 0.6604713196672862, method=eps, result=0.3193986026704455
n=800, k=7, ϵ = 0.6604713196672862, method=noeps, result=0.052858809179501726
n=800, k=8, ϵ = 0.6604713196672862, method=eps, result=0.28152942239001366
n=800, k=8, ϵ = 0.6604713196672862, method=noeps, result=0.048613024383405486
n=800, k=9, ϵ = 0.6604713196672862, method=eps, result=0.32992142258472956
n=800, k=9, ϵ = 0.6604713196672862, method=noeps, result=0.0546731788862129
n=800, k=10, ϵ = 0.6604713196672862, method=eps, result=0.2846333295146924
n=800, k=10, ϵ = 0.6604713196672862, method=noeps, result=0.03782330961205629
n=800, k=11, ϵ = 0.6604713196672862, method=eps, result=0.3060020355385801
n=800, k=11, ϵ = 0.6604713196672862, method=noeps, result=0.04793078316322541
n=800, k=12, ϵ = 0.6604713196672862, method=eps, result=0.3137569781381327
n=800, k=12, ϵ = 0.6604713196672862, method=noeps, result=0.0491325504774552
n=800, k=13, ϵ = 0.6604713196672862, method=eps, result=0.38511692738720327
n=800, k=13, ϵ = 0.6604713196672862, method=noeps, result=0.05115916324601328
n=800, k=14, ϵ = 0.6604713196672862, method=eps, result=0.331432890806356
n=800, k=14, ϵ = 0.6604713196672862, method=noeps, result=0.047987810298047454
n=800, k=15, ϵ = 0.6604713196672862, method=eps, result=0.30400531085896304
n=800, k=15, ϵ = 0.6604713196672862, method=noeps, result=0.047876662272817894
n=800, k=16, ϵ = 0.6604713196672862, method=eps, result=0.3075753060947171
n=800, k=16, ϵ = 0.6604713196672862, method=noeps, result=0.04781309660636287
n=800, k=17, ϵ = 0.6604713196672862, method=eps, result=0.2930330040590148
n=800, k=17, ϵ = 0.6604713196672862, method=noeps, result=0.05070525188532198
n=800, k=18, ϵ = 0.6604713196672862, method=eps, result=0.32642442647905456
n=800, k=18, ϵ = 0.6604713196672862, method=noeps, result=0.04690023830841892
n=800, k=19, ϵ = 0.6604713196672862, method=eps, result=0.34292607919851376
n=800, k=19, ϵ = 0.6604713196672862, method=noeps, result=0.05195286268034421
n=800, k=20, ϵ = 0.6604713196672862, method=eps, result=0.3042366385869701
n=800, k=20, ϵ = 0.6604713196672862, method=noeps, result=0.04483266530080497
n=1000, k=1, ϵ = 0.6591945128645011, method=eps, result=0.35769544405347303
n=1000, k=1, ϵ = 0.6591945128645011, method=noeps, result=0.04413267382350294
n=1000, k=2, ϵ = 0.6591945128645011, method=eps, result=0.34063205518467427
n=1000, k=2, ϵ = 0.6591945128645011, method=noeps, result=0.047944804313087765
n=1000, k=3, ϵ = 0.6591945128645011, method=eps, result=0.3162711474584449
n=1000, k=3, ϵ = 0.6591945128645011, method=noeps, result=0.04656098166634307
n=1000, k=4, ϵ = 0.6591945128645011, method=eps, result=0.29668155230105614
n=1000, k=4, ϵ = 0.6591945128645011, method=noeps, result=0.0459425515864923
n=1000, k=5, ϵ = 0.6591945128645011, method=eps, result=0.33456431980356033
n=1000, k=5, ϵ = 0.6591945128645011, method=noeps, result=0.046467081346934946
n=1000, k=6, ϵ = 0.6591945128645011, method=eps, result=0.33505442456344203
n=1000, k=6, ϵ = 0.6591945128645011, method=noeps, result=0.04831849133156633
n=1000, k=7, ϵ = 0.6591945128645011, method=eps, result=0.3521839782219492
n=1000, k=7, ϵ = 0.6591945128645011, method=noeps, result=0.04740904569687568
n=1000, k=8, ϵ = 0.6591945128645011, method=eps, result=0.32870892903976406
n=1000, k=8, ϵ = 0.6591945128645011, method=noeps, result=0.045678837754130536
n=1000, k=9, ϵ = 0.6591945128645011, method=eps, result=0.3288302662284473
n=1000, k=9, ϵ = 0.6591945128645011, method=noeps, result=0.04797725626857492
n=1000, k=10, ϵ = 0.6591945128645011, method=eps, result=0.35889455900384465
n=1000, k=10, ϵ = 0.6591945128645011, method=noeps, result=0.044789295909299025
n=1000, k=11, ϵ = 0.6591945128645011, method=eps, result=0.3089751621861489
n=1000, k=11, ϵ = 0.6591945128645011, method=noeps, result=0.044037165696168015
n=1000, k=12, ϵ = 0.6591945128645011, method=eps, result=0.3305787564274689
n=1000, k=12, ϵ = 0.6591945128645011, method=noeps, result=0.04706499229866751
n=1000, k=13, ϵ = 0.6591945128645011, method=eps, result=0.3699073142462734
n=1000, k=13, ϵ = 0.6591945128645011, method=noeps, result=0.04244015554094088
n=1000, k=14, ϵ = 0.6591945128645011, method=eps, result=0.3331667640762792
n=1000, k=14, ϵ = 0.6591945128645011, method=noeps, result=0.04640984209039071
n=1000, k=15, ϵ = 0.6591945128645011, method=eps, result=0.3414930699237563
n=1000, k=15, ϵ = 0.6591945128645011, method=noeps, result=0.04609079277337358
n=1000, k=16, ϵ = 0.6591945128645011, method=eps, result=0.29644525778996644
n=1000, k=16, ϵ = 0.6591945128645011, method=noeps, result=0.04753281410983953
n=1000, k=17, ϵ = 0.6591945128645011, method=eps, result=0.33217875224128024
n=1000, k=17, ϵ = 0.6591945128645011, method=noeps, result=0.04759330549804199
n=1000, k=18, ϵ = 0.6591945128645011, method=eps, result=0.3285048017664872
n=1000, k=18, ϵ = 0.6591945128645011, method=noeps, result=0.04653371591159175
n=1000, k=19, ϵ = 0.6591945128645011, method=eps, result=0.3348612482845556
n=1000, k=19, ϵ = 0.6591945128645011, method=noeps, result=0.04595025421988859
n=1000, k=20, ϵ = 0.6591945128645011, method=eps, result=0.2862106266070582
n=1000, k=20, ϵ = 0.6591945128645011, method=noeps, result=0.039782136705867624
Julia exited
Wed Oct 20 17:32:48 EDT 2021
